{
  "name": "",
  "css_prefix_text": "icon-",
  "css_use_suffix": false,
  "hinting": true,
  "units_per_em": 1000,
  "ascent": 850,
  "glyphs": [
    {
      "uid": "465bb89b6f204234e5787c326b4ae54c",
      "css": "ccw",
      "code": 59396,
      "src": "entypo"
    },
    {
      "uid": "bb46b15cb78cc4cc05d3d715d522ac4d",
      "css": "cw",
      "code": 59397,
      "src": "entypo"
    },
    {
      "uid": "8704cd847a47b64265b8bb110c8b4d62",
      "css": "down-open",
      "code": 59392,
      "src": "entypo"
    },
    {
      "uid": "c311c48d79488965b0fab7f9cd12b6b5",
      "css": "left-open",
      "code": 59393,
      "src": "entypo"
    },
    {
      "uid": "749e7d90a9182938180f1d2d8c33584e",
      "css": "right-open",
      "code": 59394,
      "src": "entypo"
    },
    {
      "uid": "9c7ff134960bb5a82404e4aeaab366d9",
      "css": "up-open",
      "code": 59395,
      "src": "entypo"
    },
    {
      "uid": "85017ab6ca074831a8de771b40e9640c",
      "css": "camera",
      "code": 59398,
      "src": "entypo"
    },
    {
      "uid": "005a38f6af74b31aeb817fedb09d2175",
      "css": "keyboard",
      "code": 59399,
      "src": "entypo"
    },
    {
      "uid": "bc64550dd022ce21604f97309b346cea",
      "css": "cog",
      "code": 59400,
      "src": "entypo"
    }
  ]
}